…
Found data from the world bank website on the % prevalence of of diabetes for each country, in 2015. Seemed like a cool idea since I work in diabetes research. I had to make a couple edits to the .csv file in excel so it would play nicely in R.

Filter our data down to make things easier to work with. Lets just look at countries in Asia, years 2002 and 2007, and only look at the columns country, lifeExp, and year.

``` r
gapminder_02_07 <- gapminder %>%
  filter(year == 2007 | year == 2002) %>% 
  filter(continent == "Asia") %>% 
  select(country, lifeExp, year)

gapminder_02_07
```

    ## # A tibble: 66 x 3
    ##        country lifeExp  year
    ##         <fctr>   <dbl> <int>
    ##  1 Afghanistan  42.129  2002
    ##  2 Afghanistan  43.828  2007
    ##  3     Bahrain  74.795  2002
    ##  4     Bahrain  75.635  2007
    ##  5  Bangladesh  62.013  2002
    ##  6  Bangladesh  64.062  2007
    ##  7    Cambodia  56.752  2002
    ##  8    Cambodia  59.723  2007
    ##  9       China  72.028  2002
    ## 10       China  72.961  2007
    ## # ... with 56 more rows

Try joining it with gapminder a few different ways:

``` r
left_join(gapminder_02_07, diabetes_rates)
```

    ## Joining, by = "country"

    ## Warning: Column `country` joining factors with different levels, coercing
    ## to character vector

    ## # A tibble: 66 x 4
    ##        country lifeExp  year Diabetes_prevalance_2015
    ##          <chr>   <dbl> <int>                    <dbl>
    ##  1 Afghanistan  42.129  2002                      8.8
    ##  2 Afghanistan  43.828  2007                      8.8
    ##  3     Bahrain  74.795  2002                     19.6
    ##  4     Bahrain  75.635  2007                     19.6
    ##  5  Bangladesh  62.013  2002                      8.3
    ##  6  Bangladesh  64.062  2007                      8.3
    ##  7    Cambodia  56.752  2002                      3.0
    ##  8    Cambodia  59.723  2007                      3.0
    ##  9       China  72.028  2002                      9.8
    ## 10       China  72.961  2007                      9.8
    ## # ... with 56 more rows

**Left\_join** takes everything from the gapminder data frame, and then adds columns for the diabetes data frame. If a country in gapminder is missing from diabetes\_rates, then it puts an 'NA' in the diabetes column. This join function is probably the most practical for real use based on my original idea.

``` r
right_join(gapminder_02_07, diabetes_rates)
```

    ## Joining, by = "country"

    ## Warning: Column `country` joining factors with different levels, coercing
    ## to character vector

    ## # A tibble: 292 x 4
    ##                 country lifeExp  year Diabetes_prevalance_2015
    ##                   <chr>   <dbl> <int>                    <dbl>
    ##  1                Aruba      NA    NA                 11.70000
    ##  2          Afghanistan  42.129  2002                  8.80000
    ##  3          Afghanistan  43.828  2007                  8.80000
    ##  4               Angola      NA    NA                  4.10000
    ##  5              Albania      NA    NA                 10.30000
    ##  6              Andorra      NA    NA                  8.50000
    ##  7           Arab World      NA    NA                 11.91781
    ##  8 United Arab Emirates      NA    NA                 19.30000
    ##  9            Argentina      NA    NA                  6.00000
    ## 10              Armenia      NA    NA                  6.40000
    ## # ... with 282 more rows

With **right\_join**, this does the opposite of left join. It takes countries from diabetes\_rates and adds columns for gapminder. Here we can see there are a lot of "NA" in lifeExp and year. This indicates diabetes\_rates has a lot more countries and our filtered gapminder (because gapminder was limited to just Asia here). Interestingly there are a couple countries that were listed in diabetes\_rates but did not have diabetes data, so all their columns are "NA". There are still 2 rows per country.

``` r
semi_join(gapminder_02_07, diabetes_rates)
```

    ## Joining, by = "country"

    ## Warning: Column `country` joining factors with different levels, coercing
    ## to character vector

    ## # A tibble: 56 x 3
    ##        country lifeExp  year
    ##         <fctr>   <dbl> <int>
    ##  1 Afghanistan  42.129  2002
    ##  2 Afghanistan  43.828  2007
    ##  3  Bangladesh  62.013  2002
    ##  4  Bangladesh  64.062  2007
    ##  5     Bahrain  74.795  2002
    ##  6     Bahrain  75.635  2007
    ##  7       China  72.028  2002
    ##  8       China  72.961  2007
    ##  9   Indonesia  68.588  2002
    ## 10   Indonesia  70.650  2007
    ## # ... with 46 more rows

**Semi\_join** did not add the diabetes\_prevalence column, but instead filtered down gapminder so that only countries that were also in diabetes\_rates were kept. About 10 rows were removed, these removed rows correspond to the rows in left\_join with "NA".

``` r
inner_join(gapminder_02_07, diabetes_rates)
```

    ## Joining, by = "country"

    ## Warning: Column `country` joining factors with different levels, coercing
    ## to character vector

    ## # A tibble: 56 x 4
    ##        country lifeExp  year Diabetes_prevalance_2015
    ##          <chr>   <dbl> <int>                    <dbl>
    ##  1 Afghanistan  42.129  2002                      8.8
    ##  2 Afghanistan  43.828  2007                      8.8
    ##  3     Bahrain  74.795  2002                     19.6
    ##  4     Bahrain  75.635  2007                     19.6
    ##  5  Bangladesh  62.013  2002                      8.3
    ##  6  Bangladesh  64.062  2007                      8.3
    ##  7    Cambodia  56.752  2002                      3.0
    ##  8    Cambodia  59.723  2007                      3.0
    ##  9       China  72.028  2002                      9.8
    ## 10       China  72.961  2007                      9.8
    ## # ... with 46 more rows
…
**Anti\_join** works similar to semi\_join, but instead of returning the 56 rows that matched, it reutrns the 10 rows from gapminder that were not in diabetes\_rates.

``` r
full_join(gapminder_02_07, diabetes_rates)
```

    ## Joining, by = "country"

    ## Warning: Column `country` joining factors with different levels, coercing
    ## to character vector

    ## # A tibble: 302 x 4
    ##        country lifeExp  year Diabetes_prevalance_2015
    ##          <chr>   <dbl> <int>                    <dbl>
    ##  1 Afghanistan  42.129  2002                      8.8
    ##  2 Afghanistan  43.828  2007                      8.8
    ##  3     Bahrain  74.795  2002                     19.6
    ##  4     Bahrain  75.635  2007                     19.6
    ##  5  Bangladesh  62.013  2002                      8.3
    ##  6  Bangladesh  64.062  2007                      8.3
    ##  7    Cambodia  56.752  2002                      3.0
    ##  8    Cambodia  59.723  2007                      3.0
    ##  9       China  72.028  2002                      9.8
    ## 10       China  72.961  2007                      9.8
    ## # ... with 292 more rows
…
