…
This code above took a lot of time to figure out. In the end we are using both the `map2` function and `possibly` (we call on `possibly` from within `map2`). `Possibly` is used here because some of the longtitude/latitude combinations fail to obtain a match and throw an error in which interferes with `revgeocode`.

It seems the Google Maps API limits to 2500 queries a day. As we have around 4000 rows, let's run just the first 2500 rows, and then the rest seperately.

We now have a nested data frame. We can use the "locality column" in the locs dataframe and compare it to the "dirty" variable city.

**2. Try to check wether the place in city corresponds to the information you retrieved:**

``` r
locations_combined %>% 
    mutate(match = .$city)
```

    ## # A tibble: 4,132 x 16
    ##              track_id                            title            song_id
    ##                 <chr>                            <chr>              <chr>
    ##  1 TRXJANY128F42246FC                    Lonely Island SODESQP12A6D4F98EF
    ##  2 TRIKPCA128F424A553            Here's That Rainy Day SOQUYQD12A8C131619
    ##  3 TRBYYXH128F4264585                            Games SOPIOCP12A8C13A322
    ##  4 TRKFFKR128F9303AE3                       More Pipes SOHQSPY12AB0181325
    ##  5 TRWKTVW12903CE5ACF                      Indian Deli SOGYBYQ12AB0188586
    ##  6 TRUWFXF128E0795D22                    Miss Gorgeous SOTEIQB12A6702048D
    ##  7 TRYKVFW128F4243264                      Lahainaluna SOUZVTG12A8C1308FB
    ##  8 TRUNSOU12903CC52BD         The Ingenue (LP Version) SOJESNI12AB0186408
    ##  9 TRBNFTT128F92FB599 The Unquiet Grave (Child No. 78) SOTSNHW12AB0182A9D
    ## 10 TREGTHP128F4286994                       The Breaks SORKAVQ12A8C137E9C
    ## # ... with 4,122 more rows, and 13 more variables: release <chr>,
    ## #   artist_id <chr>, artist_name <chr>, year <int>, duration <dbl>,
    ## #   artist_hotttnesss <dbl>, artist_familiarity <dbl>, latitude <dbl>,
    ## #   longitude <dbl>, name <chr>, city <chr>, locs <list>, match <chr>
…
